{
  "3/1": "月 鰤の照り焼き 味噌かつ丼 鶏南蛮そば キーマカレー",
  "3/2": "火 カジキのケッカソース ダッカルビチキン丼 ゴボウ天うどん",
  "3/3": "水 鶏肉の柚子胡椒焼き ナシゴレン 醤油 つけ麺",
  "3/4": "木 ガイヤーン 牛カルビ丼 スモークサーモンクリーム　スパゲティ",
  "3/3": "金 ヘルシー　車麩と白身魚の煮付け 焼き鳥丼 ちゃんぽん",
  "3/6": "ホウレンソウ、ベーコンのガーリックオイル",
  "3/9": "月 黒豚メンチ　コロッケ 黒むつの西京焼き スパゲティ チキンレッドカレー",
  "3/10": "火 ビアマリネチキン シュリンプパッポンカリー ビン冷麺",
  "3/11": "水 牛肉の生姜焼き 奄美　鶏飯 皿うどん",
  "3/12": "木 タイ風ポークステーキ ヘルシー　海老とレタスのオイスター炒め丼 ジャージャー麺",
  "3/13": "金 白身魚と季節野菜の黒酢あん ガパオ 酸辣湯麺",
  "3/16": "月 銀鮭の麹焼き 豚細切り肉あんかけチャーハン 鶏天うどん クラシックビーフカレー",
  "3/17": "火 カジキの煮付け 豚とろめかぶ丼 なめこおろし蕎麦",
  "3/18": "水 白身魚のエシャロットソース 鶏そぼろ、ほうれん草、玉子の三色丼 コムタンヌードル",
  "3/19": "木 フランゴチキン まぐろのコチュジャンソース 坦々麺",
  "3/20": "金 豚肉と玉子のオイスターソース炒め ねぎとろ丼 カレーうどん",
  "3/23": "月 ハンバーグ　トマトソース ロースカツ丼 たぬきそば トマトコナッツチキンカレー",
  "3/24": "火 チキン南蛮　タルタルソース チャーシュー丼 貝柱ときのこの和風スパゲティ",
  "3/23": "水 ミックスフライ ヘルシー　塩麹ポークステーキ丼 トムヤムクン　フォー",
  "3/26": "木 ひれかつ ビンバ丼 ナポリタン　スパゲティ",
  "3/27": "金 回鍋肉 スモークサーモンアボカド丼 豚骨ラーメン",
  "3/30": "月 昭和の日",
  "3/31": "火 国民の休日"
}